CDISC Analysis Results Data • cards
…
You can install the development version of cards from GitHub with:

# install.packages("devtools")
devtools::install_github("insightsengineering/cards")

Example

ARD Examples

library(cards)
library(dplyr) |> suppressPackageStartupMessages()

ard_continuous(mtcars, by = "cyl", variables = c("mpg", "hp")) |> 
  flatten_ard()
#> # A tibble: 42 × 10
#>    group1 group1_level variable stat_name stat_label stat_format_fn  statistic
#>    <chr>   <chr>         <chr>    <chr>     <chr>      <chr>           <chr>    
#>  1 cyl     4             mpg      N         N          "function (x) … 11       
#>  2 cyl     4             mpg      N_miss    N Missing  "function (x) … 0        
#>  3 cyl     4             mpg      N_tot     Total N    "function (x) … 11       
#>  4 cyl     4             mpg      mean      Mean       "function (x) … 26.66363…
#>  5 cyl     4             mpg      sd        SD         "function (x) … 4.509827…
#>  6 cyl     4             mpg      min       Min        "function (x) … 21.4     
#>  7 cyl     4             mpg      max       Max        "function (x) … 33.9     
#>  8 cyl     4             hp       N         N          "function (x) … 11       
#>  9 cyl     4             hp       N_miss    N Missing  "function (x) … 0        
#> 10 cyl     4             hp       N_tot     Total N    "function (x) … 11       
#> # ℹ 32 more rows
#> # ℹ 3 more variables: warning <chr>, error <chr>, context <chr>

ard_categorical(mtcars, by = "cyl", variables = c("am", "gear")) |> 
  flatten_ard()
#> # A tibble: 48 × 11
#>    group1 group1_level variable stat_label stat_format_fn       variable_level
#>    <chr>   <chr>         <chr>    <chr>      <chr>                <chr>         
#>  1 cyl     4             am       table      "function (x) \nfor… 0             
#>  2 cyl     4             am       table      "function (x) \nfor… 0             
#>  3 cyl     4             am       table      "function (x) \nfor… 1             
#>  4 cyl     4             am       table      "function (x) \nfor… 1             
#>  5 cyl     6             am       table      "function (x) \nfor… 0             
#>  6 cyl     6             am       table      "function (x) \nfor… 0             
#>  7 cyl     6             am       table      "function (x) \nfor… 1             
#>  8 cyl     6             am       table      "function (x) \nfor… 1             
#>  9 cyl     8             am       table      "function (x) \nfor… 0             
#> 10 cyl     8             am       table      "function (x) \nfor… 0             
#> # ℹ 38 more rows
#> # ℹ 5 more variables: warning <chr>, error <chr>, context <chr>,
#> #   stat_name <chr>, statistic <chr>
…
glm(am ~ mpg + factor(cyl), data = mtcars, family = binomial) |>
  ard_regression(add_estimate_to_reference_rows = TRUE) |> 
  flatten_ard()
#> # A tibble: 68 × 5
#>    variable variable_level stat_name      statistic  context   
#>    <chr>    <chr>          <chr>          <chr>      <chr>     
#>  1 mpg      <NA>           term           mpg        regression
#>  2 mpg      <NA>           var_label      mpg        regression
#>  3 mpg      <NA>           var_class      numeric    regression
#>  4 mpg      <NA>           var_type       continuous regression
#>  5 mpg      <NA>           var_nlevels    <NA>       regression
#>  6 mpg      <NA>           contrasts      <NA>       regression
#>  7 mpg      <NA>           contrasts_type <NA>       regression
#>  8 mpg      <NA>           reference_row  <NA>       regression
#>  9 mpg      <NA>           label          mpg        regression
#> 10 mpg      <NA>           n_obs          32         regression
#> # ℹ 58 more rows
…
