…
---

    Code
      ard_shuffled
    Output
      # A tibble: 82 x 6
         ARM     variable label         stat_name statistic context   
         <chr>   <fct>    <chr>         <chr>         <dbl> <chr>     
       1 Placebo AGE      N             N             86    continuous
       2 Placebo AGE      Mean(SD)      mean          75.2  continuous
       3 Placebo AGE      Mean(SD)      sd             8.59 continuous
       4 Placebo AGE      median        median        76    continuous
       5 Placebo AGE      p25           p25           69.2  continuous
       6 Placebo AGE      p75           p75           81.8  continuous
       7 Placebo AGE      min           min           52    continuous
       8 Placebo AGE      max           max           89    continuous
       9 Placebo AGE      Vector Length N_obs         86    missing   
      10 Placebo AGE      N Missing     N_miss         0    missing   
      # i 72 more rows

---

    Code
      ard_shuff_trim
    Output
      # A tibble: 82 x 6
         ARM     variable label         stat_name statistic context   
         <chr>   <fct>    <chr>         <chr>         <dbl> <chr>     
       1 Placebo AGE      N             N             86    continuous
       2 Placebo AGE      Mean(SD)      mean          75.2  continuous
       3 Placebo AGE      Mean(SD)      sd             8.59 continuous
       4 Placebo AGE      median        median        76    continuous
       5 Placebo AGE      p25           p25           69.2  continuous
       6 Placebo AGE      p75           p75           81.8  continuous
       7 Placebo AGE      min           min           52    continuous
       8 Placebo AGE      max           max           89    continuous
       9 Placebo AGE      Vector Length N_obs         86    missing   
      10 Placebo AGE      N Missing     N_miss         0    missing   
      # i 72 more rows
