…
ard_stack(
  data = ADSL,
  ard_tabulate(variables = "AGEGR1"),
  ard_summary(variables = "AGE"),
  .by = "ARM",
  .shuffle = TRUE
)
#> Warning: The `.shuffle` argument of `ard_stack()` is deprecated as of cards 0.7.0.
#> ℹ Call `shuffle_ard()` after `ard_stack()`.
#> # A tibble: 60 × 7
#>    ARM     variable variable_level context  stat_name stat_label   stat
#>    <chr>   <chr>    <chr>          <chr>    <chr>     <chr>       <dbl>
#>  1 Placebo AGEGR1   65-80          tabulate n         n          42    
#>  2 Placebo AGEGR1   65-80          tabulate N         N          86    
#>  3 Placebo AGEGR1   65-80          tabulate p         %           0.488
#>  4 Placebo AGEGR1   <65            tabulate n         n          14    
#>  5 Placebo AGEGR1   <65            tabulate N         N          86    
#>  6 Placebo AGEGR1   <65            tabulate p         %           0.163
#>  7 Placebo AGEGR1   >80            tabulate n         n          30    
#>  8 Placebo AGEGR1   >80            tabulate N         N          86    
#>  9 Placebo AGEGR1   >80            tabulate p         %           0.349
#> 10 Placebo AGE      NA             summary  N         N          86    
#> # ℹ 50 more rows
```
