ARD Nesting — nest_for_ard • cards
…
    Value

a nested tibble

    Examples

nest_for_ard(
  data =
    ADAE |>
      dplyr::left_join(ADSL[c("USUBJID", "ARM")], by = "USUBJID") |>
      dplyr::filter(AOCCSFL %in% "Y"),
  by = "ARM",
  strata = "AESOC"
)
#> # A tibble: 69 × 5
#>    group1 group1_level group2 group2_level data              
#>    <chr>  <list>       <chr>  <list>       <list>            
#>  1 ARM    <chr [1]>    AESOC  <chr [1]>    <tibble [12 × 54]>
#>  2 ARM    <chr [1]>    AESOC  <chr [1]>    <tibble [15 × 54]>
#>  3 ARM    <chr [1]>    AESOC  <chr [1]>    <tibble [13 × 54]>
#>  4 ARM    <chr [1]>    AESOC  <chr [1]>    <tibble [0 × 54]> 
#>  5 ARM    <chr [1]>    AESOC  <chr [1]>    <tibble [2 × 54]> 
#>  6 ARM    <chr [1]>    AESOC  <chr [1]>    <tibble [1 × 54]> 
#>  7 ARM    <chr [1]>    AESOC  <chr [1]>    <tibble [1 × 54]> 
#>  8 ARM    <chr [1]>    AESOC  <chr [1]>    <tibble [1 × 54]> 
#>  9 ARM    <chr [1]>    AESOC  <chr [1]>    <tibble [2 × 54]> 
#> 10 ARM    <chr [1]>    AESOC  <chr [1]>    <tibble [2 × 54]> 
#> # ℹ 59 more rows
…
