…
## Value

a data frame

## Examples

``` r
ADSL |>
  ard_tabulate(by = ARM, variables = AGEGR1) |>
  apply_fmt_fun() |>
  unlist_ard_columns()
#> # A tibble: 27 × 12
#>    group1 group1_level      variable variable_level context stat_name stat_label
#>    <chr>  <chr>             <chr>    <chr>          <chr>   <chr>     <chr>     
#>  1 ARM    Placebo           AGEGR1   65-80          tabula… n         n         
#>  2 ARM    Placebo           AGEGR1   65-80          tabula… N         N         
#>  3 ARM    Placebo           AGEGR1   65-80          tabula… p         %         
#>  4 ARM    Placebo           AGEGR1   <65            tabula… n         n         
#>  5 ARM    Placebo           AGEGR1   <65            tabula… N         N         
#>  6 ARM    Placebo           AGEGR1   <65            tabula… p         %         
#>  7 ARM    Placebo           AGEGR1   >80            tabula… n         n         
#>  8 ARM    Placebo           AGEGR1   >80            tabula… N         N         
#>  9 ARM    Placebo           AGEGR1   >80            tabula… p         %         
#> 10 ARM    Xanomeline High … AGEGR1   65-80          tabula… n         n         
#> # ℹ 17 more rows
#> # ℹ 5 more variables: stat <dbl>, stat_fmt <chr>, fmt_fun <list>,
#> #   warning <list>, error <list>

ADSL |>
  ard_summary(by = ARM, variables = AGE) |>
  apply_fmt_fun() |>
  unlist_ard_columns()
#> # A tibble: 24 × 11
#>    group1 group1_level      variable context stat_name stat_label  stat stat_fmt
#>    <chr>  <chr>             <chr>    <chr>   <chr>     <chr>      <dbl> <chr>   
#>  1 ARM    Placebo           AGE      summary N         N          86    86      
#>  2 ARM    Placebo           AGE      summary mean      Mean       75.2  75.2    
#>  3 ARM    Placebo           AGE      summary sd        SD          8.59 8.6     
#>  4 ARM    Placebo           AGE      summary median    Median     76    76.0    
#>  5 ARM    Placebo           AGE      summary p25       Q1         69    69.0    
#>  6 ARM    Placebo           AGE      summary p75       Q3         82    82.0    
#>  7 ARM    Placebo           AGE      summary min       Min        52    52.0    
#>  8 ARM    Placebo           AGE      summary max       Max        89    89.0    
#>  9 ARM    Xanomeline High … AGE      summary N         N          84    84      
#> 10 ARM    Xanomeline High … AGE      summary mean      Mean       74.4  74.4    
#> # ℹ 14 more rows
#> # ℹ 3 more variables: fmt_fun <list>, warning <list>, error <list>
```
