ARD Helpers — ard-helpers • cards
…
bind_ard(ard, ard, .update = TRUE)
#> ℹ 36 duplicate observations removed.
#> # A tibble: 36 × 11
#>    group1 group1_level variable variable_level context     stat_name stat_label
#>    <chr>  <list>       <chr>    <list>         <chr>       <chr>     <chr>     
#>  1 ARM    <chr [1]>    AGEGR1   <chr [1]>      categorical n         n         
#>  2 ARM    <chr [1]>    AGEGR1   <chr [1]>      categorical p         %         
#>  3 ARM    <chr [1]>    AGEGR1   <chr [1]>      categorical n         n         
#>  4 ARM    <chr [1]>    AGEGR1   <chr [1]>      categorical p         %         
#>  5 ARM    <chr [1]>    AGEGR1   <chr [1]>      categorical n         n         
#>  6 ARM    <chr [1]>    AGEGR1   <chr [1]>      categorical p         %         
#>  7 ARM    <chr [1]>    AGEGR1   <NULL>         categorical N         N         
#>  8 ARM    <chr [1]>    AGEGR1   <NULL>         categorical N_obs     N_obs     
#>  9 ARM    <chr [1]>    AGEGR1   <NULL>         categorical N_miss    N_miss    
#> 10 ARM    <chr [1]>    AGEGR1   <NULL>         categorical N_nonmiss N_nonmiss 
#> # ℹ 26 more rows
#> # ℹ 4 more variables: statistic <list>, statistic_fmt_fn <list>,
#> #   warning <list>, error <list>
…
