Categorical ARD Statistics — ard_categorical • cards
…
ard_categorical(
  data =
    ADAE |>
      dplyr::left_join(ADSL[c("USUBJID", "ARM")], by = "USUBJID") |>
      dplyr::filter(AOCCSFL %in% "Y"),
  by = "ARM",
  variables = "AESOC",
  denominator = ADSL
) |>
  flatten_ard()
#> # A tibble: 141 x 9
#>    group1 group1_level variable variable_level    stat_name stat_label statistic
#>    <chr>  <chr>        <chr>    <chr>             <chr>     <chr>      <chr>    
#>  1 ARM    Placebo      AESOC    CARDIAC DISORDERS n         n          12       
#>  2 ARM    Placebo      AESOC    CARDIAC DISORDERS p         %          0.139534~
#>  3 ARM    Placebo      AESOC    CONGENITAL, FAMI~ n         n          0        
#>  4 ARM    Placebo      AESOC    CONGENITAL, FAMI~ p         %          0        
#>  5 ARM    Placebo      AESOC    EAR AND LABYRINT~ n         n          1        
#>  6 ARM    Placebo      AESOC    EAR AND LABYRINT~ p         %          0.011627~
#>  7 ARM    Placebo      AESOC    EYE DISORDERS     n         n          2        
#>  8 ARM    Placebo      AESOC    EYE DISORDERS     p         %          0.023255~
#>  9 ARM    Placebo      AESOC    GASTROINTESTINAL~ n         n          17       
#> 10 ARM    Placebo      AESOC    GASTROINTESTINAL~ p         %          0.197674~
#> # i 131 more rows
#> # i 2 more variables: warning <chr>, error <chr>

    Examples

ard_categorical(ADSL, by = "ARM", variables = "AGEGR1") |>
  flatten_ard()
#> # A tibble: 36 × 9
#>    group1 group1_level variable variable_level stat_name stat_label statistic   
#>    <chr>  <chr>        <chr>    <chr>          <chr>     <chr>      <chr>       
#>  1 ARM    Placebo      AGEGR1   65-80          n         n          42          
#>  2 ARM    Placebo      AGEGR1   65-80          p         %          0.488372093…
#>  3 ARM    Placebo      AGEGR1   <65            n         n          14          
#>  4 ARM    Placebo      AGEGR1   <65            p         %          0.162790697…
#>  5 ARM    Placebo      AGEGR1   >80            n         n          30          
#>  6 ARM    Placebo      AGEGR1   >80            p         %          0.348837209…
#>  7 ARM    Placebo      AGEGR1   NA             N         N          86          
#>  8 ARM    Placebo      AGEGR1   NA             N_obs     N_obs      86          
#>  9 ARM    Placebo      AGEGR1   NA             N_miss    N_miss     0           
#> 10 ARM    Placebo      AGEGR1   NA             N_nonmiss N_nonmiss  86          
#> # ℹ 26 more rows
#> # ℹ 2 more variables: warning <chr>, error <chr>
…
