Hierarchical ARD Statistics — ard_hierarchical • cards
…
    Value

an ARD data frame

    Examples

ard_hierarchical(
  data = ADAE,
  variables = c(AESOC, AETERM),
  by = c(TRTA, AESEV),
  denominator = ADSL |> dplyr::rename(TRTA = ARM)
) |>
  flatten_ard()
#> # A tibble: 4,365 × 13
#>    group1 group1_level group2 group2_level group3 group3_level      variable
#>    <chr>  <chr>        <chr>  <chr>        <chr>  <chr>             <chr>   
#>  1 TRTA   Placebo      AESEV  MILD         AESOC  CARDIAC DISORDERS AETERM  
#>  2 TRTA   Placebo      AESEV  MILD         AESOC  CARDIAC DISORDERS AETERM  
#>  3 TRTA   Placebo      AESEV  MILD         AESOC  CARDIAC DISORDERS AETERM  
#>  4 TRTA   Placebo      AESEV  MILD         AESOC  CARDIAC DISORDERS AETERM  
#>  5 TRTA   Placebo      AESEV  MILD         AESOC  CARDIAC DISORDERS AETERM  
#>  6 TRTA   Placebo      AESEV  MILD         AESOC  CARDIAC DISORDERS AETERM  
#>  7 TRTA   Placebo      AESEV  MILD         AESOC  CARDIAC DISORDERS AETERM  
#>  8 TRTA   Placebo      AESEV  MILD         AESOC  CARDIAC DISORDERS AETERM  
#>  9 TRTA   Placebo      AESEV  MILD         AESOC  CARDIAC DISORDERS AETERM  
#> 10 TRTA   Placebo      AESEV  MILD         AESOC  CARDIAC DISORDERS AETERM  
#> # ℹ 4,355 more rows
#> # ℹ 6 more variables: variable_level <chr>, stat_name <chr>, stat_label <chr>,
#> #   statistic <chr>, warning <chr>, error <chr>

ard_hierarchical_count(
  data = ADAE,
  variables = c(AESOC, AETERM),
  by = TRTA
) |>
  flatten_ard()
#> # A tibble: 795 × 11
#>    group1 group1_level group2 group2_level variable variable_level     stat_name
#>    <chr>  <chr>        <chr>  <chr>        <chr>    <chr>              <chr>    
#>  1 TRTA   Placebo      NA     NA           AESOC    CARDIAC DISORDERS  n        
#>  2 TRTA   Placebo      NA     NA           AESOC    CONGENITAL, FAMIL… n        
#>  3 TRTA   Placebo      NA     NA           AESOC    EAR AND LABYRINTH… n        
#>  4 TRTA   Placebo      NA     NA           AESOC    EYE DISORDERS      n        
#>  5 TRTA   Placebo      NA     NA           AESOC    GASTROINTESTINAL … n        
#>  6 TRTA   Placebo      NA     NA           AESOC    GENERAL DISORDERS… n        
#>  7 TRTA   Placebo      NA     NA           AESOC    HEPATOBILIARY DIS… n        
#>  8 TRTA   Placebo      NA     NA           AESOC    IMMUNE SYSTEM DIS… n        
#>  9 TRTA   Placebo      NA     NA           AESOC    INFECTIONS AND IN… n        
#> 10 TRTA   Placebo      NA     NA           AESOC    INJURY, POISONING… n        
#> # ℹ 785 more rows
#> # ℹ 4 more variables: stat_label <chr>, statistic <chr>, warning <chr>,
#> #   error <chr>
…
