Simple ARD Statistics — ard_simple • cards
…
Note in the above example, no by argument was added to the named list,
and therefore, the by argument from the primary call to ard_categorical()
will be used.
TODO: Update this with a real example for an AE table.

    Examples

ard_continuous(mtcars, by = "cyl", variables = c("mpg", "hp"))
#> # A tibble: 36 × 10
#>    group1 group1_level variable stat_name stat_label statistic_fmt_fn statistic
#>  * <chr>  <list>       <chr>    <chr>     <chr>      <list>           <list>   
#>  1 cyl    <dbl [1]>    mpg      N         N          <fn>             <int [1]>
#>  2 cyl    <dbl [1]>    mpg      length    length     <fn>             <int [1]>
#>  3 cyl    <dbl [1]>    mpg      mean      Mean       <fn>             <dbl [1]>
#>  4 cyl    <dbl [1]>    mpg      sd        SD         <fn>             <dbl [1]>
#>  5 cyl    <dbl [1]>    mpg      min       Min        <fn>             <dbl [1]>
#>  6 cyl    <dbl [1]>    mpg      max       Max        <fn>             <dbl [1]>
#>  7 cyl    <dbl [1]>    hp       N         N          <fn>             <int [1]>
#>  8 cyl    <dbl [1]>    hp       length    length     <fn>             <int [1]>
#>  9 cyl    <dbl [1]>    hp       mean      Mean       <fn>             <dbl [1]>
#> 10 cyl    <dbl [1]>    hp       sd        SD         <fn>             <dbl [1]>
#> # ℹ 26 more rows
#> # ℹ 3 more variables: warning <list>, error <list>, context <list>
ard_categorical(mtcars, by = "cyl", variables = c("am", "gear"))
#> # A tibble: 42 × 11
#>    group1 group1_level variable stat_label statistic_fmt_fn variable_level
#>  * <chr>  <list>       <chr>    <chr>      <list>           <list>        
#>  1 cyl    <dbl [1]>    am       n          <fn>             <dbl [1]>     
#>  2 cyl    <dbl [1]>    am       %          <fn>             <dbl [1]>     
#>  3 cyl    <dbl [1]>    am       n          <fn>             <dbl [1]>     
#>  4 cyl    <dbl [1]>    am       %          <fn>             <dbl [1]>     
#>  5 cyl    <dbl [1]>    am       n          <fn>             <dbl [1]>     
#>  6 cyl    <dbl [1]>    am       %          <fn>             <dbl [1]>     
#>  7 cyl    <dbl [1]>    am       n          <fn>             <dbl [1]>     
#>  8 cyl    <dbl [1]>    am       %          <fn>             <dbl [1]>     
#>  9 cyl    <dbl [1]>    am       n          <fn>             <dbl [1]>     
#> 10 cyl    <dbl [1]>    am       %          <fn>             <dbl [1]>     
#> # ℹ 32 more rows
#> # ℹ 5 more variables: warning <list>, error <list>, context <list>,
#> #   stat_name <chr>, statistic <list>
…
