Continuous ARD Statistics — ard_continuous • cards
…
a named list, a list of formulas, or a single formula where
the list element is either a named list or a list of formulas defining the
statistic labels, e.g. everything() ~ list(mean = "Mean", sd = "SD") or
everything() ~ list(mean ~ "Mean", sd ~ "SD").

    Value

a data frame

    Examples

ard_continuous(ADSL, by = "ARM", variables = "AGE") |>
  flatten_ard()
#> # A tibble: 24 × 8
#>    group1 group1_level     variable stat_name stat_label statistic warning error
#>    <chr>  <chr>            <chr>    <chr>     <chr>      <chr>     <chr>   <chr>
#>  1 ARM    Placebo          AGE      N         N          86        NA      NA   
#>  2 ARM    Placebo          AGE      mean      Mean       75.20930… NA      NA   
#>  3 ARM    Placebo          AGE      sd        SD         8.590167… NA      NA   
#>  4 ARM    Placebo          AGE      median    Median     76        NA      NA   
#>  5 ARM    Placebo          AGE      p25       25th Perc… 69        NA      NA   
#>  6 ARM    Placebo          AGE      p75       75th Perc… 82        NA      NA   
#>  7 ARM    Placebo          AGE      min       Min        52        NA      NA   
#>  8 ARM    Placebo          AGE      max       Max        89        NA      NA   
#>  9 ARM    Xanomeline High… AGE      N         N          84        NA      NA   
#> 10 ARM    Xanomeline High… AGE      mean      Mean       74.38095… NA      NA   
#> # ℹ 14 more rows
…
